{
  "images" : [
    {
      "filename" : "icons8-expand_arrow.png",
      "idiom" : "universal",
      "scale" : "1x"
    },
    {
      "filename" : "icons8-expand_arrow-1.png",
      "idiom" : "universal",
      "scale" : "2x"
    },
    {
      "filename" : "icons8-expand_arrow-2.png",
      "idiom" : "universal",
      "scale" : "3x"
    },
    {
      "filename" : "rightArrowNew.png",
      "idiom" : "universal",
      "locale" : "ar",
      "scale" : "1x"
    },
    {
      "filename" : "rightArrowNew-1.png",
      "idiom" : "universal",
      "locale" : "ar",
      "scale" : "2x"
    },
    {
      "filename" : "rightArrowNew-2.png",
      "idiom" : "universal",
      "locale" : "ar",
      "scale" : "3x"
    }
  ],
  "info" : {
    "author" : "xcode",
    "version" : 1
  },
  "properties" : {
    "localizable" : true
  }
}
